<?xml version="1.0" encoding="UTF-8" standalone="no"?>
<!-- Created with Inkscape (http://www.inkscape.org/) -->

<svg
   xmlns:dc="http://purl.org/dc/elements/1.1/"
   xmlns:cc="http://creativecommons.org/ns#"
   xmlns:rdf="http://www.w3.org/1999/02/22-rdf-syntax-ns#"
   xmlns:svg="http://www.w3.org/2000/svg"
   xmlns="http://www.w3.org/2000/svg"
   xmlns:sodipodi="http://sodipodi.sourceforge.net/DTD/sodipodi-0.dtd"
   xmlns:inkscape="http://www.inkscape.org/namespaces/inkscape"
   width="210mm"
   height="297mm"
   viewBox="0 0 210 297"
   version="1.1"
   id="svg8"
   inkscape:version="0.92.5 (2060ec1f9f, 2020-04-08)"
   sodipodi:docname="dibujo.svg">
  <defs
     id="defs2">
    <inkscape:path-effect
       effect="simplify"
       id="path-effect960"
       is_visible="true"
       steps="1"
       threshold="0.5"
       smooth_angles="360"
       helper_size="0"
       simplify_individual_paths="false"
       simplify_just_coalesce="false"
       simplifyindividualpaths="false"
       simplifyJustCoalesce="false" />
    <inkscape:path-effect
       effect="simplify"
       id="path-effect954"
       is_visible="true"
       steps="1"
       threshold="0.5"
       smooth_angles="360"
       helper_size="0"
       simplify_individual_paths="false"
       simplify_just_coalesce="false"
       simplifyindividualpaths="false"
       simplifyJustCoalesce="false" />
    <inkscape:path-effect
       effect="simplify"
       id="path-effect940"
       is_visible="true"
       steps="1"
       threshold="0.5"
       smooth_angles="360"
       helper_size="0"
       simplify_individual_paths="false"
       simplify_just_coalesce="false"
       simplifyindividualpaths="false"
       simplifyJustCoalesce="false" />
  </defs>
  <sodipodi:namedview
     id="base"
     pagecolor="#ffffff"
     bordercolor="#666666"
     borderopacity="1.0"
     inkscape:pageopacity="0.0"
     inkscape:pageshadow="2"
     inkscape:zoom="0.49497475"
     inkscape:cx="938.91488"
     inkscape:cy="493.06872"
     inkscape:document-units="mm"
     inkscape:current-layer="layer1"
     showgrid="false"
     showguides="true"
     inkscape:guide-bbox="true"
     inkscape:window-width="1880"
     inkscape:window-height="1056"
     inkscape:window-x="1406"
     inkscape:window-y="0"
     inkscape:window-maximized="1">
    <sodipodi:guide
       position="78.619046,114.52679"
       orientation="0,1"
       id="guide946"
       inkscape:locked="false" />
  </sodipodi:namedview>
  <metadata
     id="metadata5">
    <rdf:RDF>
      <cc:Work
         rdf:about="">
        <dc:format>image/svg+xml</dc:format>
        <dc:type
           rdf:resource="http://purl.org/dc/dcmitype/StillImage" />
        <dc:title></dc:title>
      </cc:Work>
    </rdf:RDF>
  </metadata>
  <g
     inkscape:label="Capa 1"
     inkscape:groupmode="layer"
     id="layer1">
    <path
       style="fill:none;stroke:#000000;stroke-width:0.26458332px;stroke-linecap:butt;stroke-linejoin:miter;stroke-opacity:1"
       d="m 103.43331,38.817639 c 0,46.877254 0,93.754511 0,140.631761"
       id="path938"
       inkscape:connector-curvature="0"
       inkscape:path-effect="#path-effect940"
       inkscape:original-d="M 103.43331,38.817639 V 179.4494"
       inkscape:export-xdpi="96"
       inkscape:export-ydpi="96" />
    <path
       style="fill:none;stroke:#000000;stroke-width:0.26458332px;stroke-linecap:butt;stroke-linejoin:miter;stroke-opacity:1"
       d="m 63.122023,182.47321 c 25.954366,0 51.908727,0 77.863097,0"
       id="path952"
       inkscape:connector-curvature="0"
       inkscape:path-effect="#path-effect954"
       inkscape:original-d="M 63.122023,182.47321 H 140.98512"
       inkscape:export-xdpi="96"
       inkscape:export-ydpi="96" />
    <path
       style="fill:none;stroke:#000000;stroke-width:0.26458332px;stroke-linecap:butt;stroke-linejoin:miter;stroke-opacity:1"
       d="m 146.27678,182.47321 c 0,7.74851 0,15.49703 0,23.24554"
       id="path958"
       inkscape:connector-curvature="0"
       inkscape:path-effect="#path-effect960"
       inkscape:original-d="m 146.27678,182.47321 v 23.24554"
       inkscape:export-xdpi="96"
       inkscape:export-ydpi="96" />
    <rect
       style="fill:#ffffff;fill-opacity:1;stroke:#000000;stroke-width:0.293;stroke-linecap:butt;stroke-miterlimit:1.79999995;stroke-dasharray:none;stroke-dashoffset:3.52663768;stroke-opacity:1"
       id="rect828"
       width="63.610146"
       height="17.639788"
       x="71.360962"
       y="17.703344"
       inkscape:export-xdpi="96"
       inkscape:export-ydpi="96" />
    <text
       xml:space="preserve"
       style="font-style:normal;font-weight:normal;font-size:10.58333302px;line-height:1.25;font-family:sans-serif;letter-spacing:0px;word-spacing:0px;fill:#000000;fill-opacity:1;stroke:none;stroke-width:0.07000434;stroke-miterlimit:1.79999995;stroke-dasharray:none"
       x="75.904541"
       y="30.265009"
       id="text832"
       inkscape:export-xdpi="96"
       inkscape:export-ydpi="96"><tspan
         sodipodi:role="line"
         id="tspan830"
         x="75.904541"
         y="30.265009"
         style="fill:#000000;stroke-width:0.07000434;stroke-miterlimit:1.79999995;stroke-dasharray:none">Document</tspan></text>
    <rect
       y="49.000164"
       x="71.43692"
       height="36.196739"
       width="63.458229"
       id="rect851"
       style="fill:#ffffff;fill-opacity:1;stroke:#000000;stroke-width:0.334;stroke-linecap:butt;stroke-miterlimit:1.79999995;stroke-dasharray:none;stroke-dashoffset:3.52663779;stroke-opacity:1"
       inkscape:export-xdpi="96"
       inkscape:export-ydpi="96" />
    <text
       xml:space="preserve"
       style="font-style:normal;font-weight:normal;font-size:6.19683075px;line-height:1.25;font-family:sans-serif;letter-spacing:0px;word-spacing:0px;fill:#4d4d4d;fill-opacity:1;stroke:none;stroke-width:0.04098945;stroke-miterlimit:1.79999995;stroke-dasharray:none"
       x="90.796516"
       y="57.515797"
       id="text855"
       inkscape:export-xdpi="96"
       inkscape:export-ydpi="96"><tspan
         sodipodi:role="line"
         id="tspan853"
         x="90.796516"
         y="57.515797"
         style="fill:#4d4d4d;stroke-width:0.04098945;stroke-miterlimit:1.79999995;stroke-dasharray:none">&lt;html&gt;</tspan><tspan
         sodipodi:role="line"
         x="90.796516"
         y="65.261833"
         style="fill:#4d4d4d;stroke-width:0.04098945;stroke-miterlimit:1.79999995;stroke-dasharray:none"
         id="tspan857">&lt;head&gt;</tspan><tspan
         sodipodi:role="line"
         x="90.796516"
         y="73.007874"
         style="fill:#4d4d4d;stroke-width:0.04098945;stroke-miterlimit:1.79999995;stroke-dasharray:none"
         id="tspan861">&lt;title&gt;</tspan><tspan
         sodipodi:role="line"
         x="90.796516"
         y="80.753914"
         style="fill:#4d4d4d;stroke-width:0.04098945;stroke-miterlimit:1.79999995;stroke-dasharray:none"
         id="tspan863">&lt;body&gt;</tspan><tspan
         sodipodi:role="line"
         x="90.796516"
         y="88.499954"
         style="fill:#4d4d4d;stroke-width:0.04098945;stroke-miterlimit:1.79999995;stroke-dasharray:none"
         id="tspan859" /></text>
    <rect
       y="93.876617"
       x="62.387253"
       height="11.011635"
       width="82.232346"
       id="rect865"
       style="fill:#ffffff;fill-opacity:1;stroke:#000000;stroke-width:0.201;stroke-linecap:butt;stroke-miterlimit:1.79999995;stroke-dasharray:none;stroke-dashoffset:3.52663779;stroke-opacity:1"
       inkscape:export-xdpi="96"
       inkscape:export-ydpi="96" />
    <text
       xml:space="preserve"
       style="font-style:normal;font-weight:normal;font-size:10.58333302px;line-height:1.25;font-family:sans-serif;letter-spacing:0px;word-spacing:0px;fill:#000000;fill-opacity:1;stroke:none;stroke-width:0.201;stroke-miterlimit:1.79999995;stroke-dasharray:none"
       x="64.599968"
       y="101.60985"
       id="text869"
       inkscape:export-xdpi="96"
       inkscape:export-ydpi="96"><tspan
         sodipodi:role="line"
         id="tspan867"
         x="64.599968"
         y="101.60985"
         style="font-size:5.64444447px;stroke-width:0.201;stroke-miterlimit:1.79999995;stroke-dasharray:none">&lt;div class=&quot;contenedor&quot;&gt;</tspan></text>
    <rect
       style="fill:#ffffff;fill-opacity:1;stroke:#000000;stroke-width:0.201;stroke-linecap:butt;stroke-miterlimit:1.79999995;stroke-dasharray:none;stroke-dashoffset:3.52663779;stroke-opacity:1"
       id="rect892"
       width="105.59191"
       height="10.983759"
       x="50.287415"
       y="111.88223"
       inkscape:export-xdpi="96"
       inkscape:export-ydpi="96" />
    <text
       id="text896"
       y="119.60147"
       x="56.66246"
       style="font-style:normal;font-weight:normal;font-size:10.58333302px;line-height:1.25;font-family:sans-serif;letter-spacing:0px;word-spacing:0px;fill:#000000;fill-opacity:1;stroke:none;stroke-width:0.201;stroke-miterlimit:1.79999995;stroke-dasharray:none"
       xml:space="preserve"
       inkscape:export-xdpi="96"
       inkscape:export-ydpi="96"><tspan
         style="font-size:5.64444447px;stroke-width:0.201;stroke-miterlimit:1.79999995;stroke-dasharray:none"
         y="119.60147"
         x="56.66246"
         id="tspan894"
         sodipodi:role="line">&lt;div class=&quot;slider-contenedor&quot;&gt;</tspan></text>
    <rect
       y="130.40303"
       x="50.287415"
       height="10.983759"
       width="105.59191"
       id="rect898"
       style="fill:#ffffff;fill-opacity:1;stroke:#000000;stroke-width:0.201;stroke-linecap:butt;stroke-miterlimit:1.79999995;stroke-dasharray:none;stroke-dashoffset:3.52663779;stroke-opacity:1"
       inkscape:export-xdpi="96"
       inkscape:export-ydpi="96" />
    <text
       xml:space="preserve"
       style="font-style:normal;font-weight:normal;font-size:10.58333302px;line-height:1.25;font-family:sans-serif;letter-spacing:0px;word-spacing:0px;fill:#000000;fill-opacity:1;stroke:none;stroke-width:0.201;stroke-miterlimit:1.79999995;stroke-dasharray:none"
       x="52.95829"
       y="138.12216"
       id="text902"
       inkscape:export-xdpi="96"
       inkscape:export-ydpi="96"><tspan
         sodipodi:role="line"
         id="tspan900"
         x="52.95829"
         y="138.12216"
         style="font-size:5.64444447px;stroke-width:0.201;stroke-miterlimit:1.79999995;stroke-dasharray:none">&lt;section class=&quot;contenido-slider&quot;&gt;</tspan></text>
    <rect
       style="fill:#ffffff;fill-opacity:1;stroke:#000000;stroke-width:0.20100001;stroke-linecap:butt;stroke-miterlimit:1.79999995;stroke-dasharray:none;stroke-dashoffset:0;stroke-opacity:1"
       id="rect904"
       width="25.946251"
       height="11.27184"
       x="90.185081"
       y="154.67006"
       inkscape:export-xdpi="96"
       inkscape:export-ydpi="96" />
    <text
       xml:space="preserve"
       style="font-style:normal;font-weight:normal;font-size:10.58333302px;line-height:1.25;font-family:sans-serif;letter-spacing:0px;word-spacing:0px;fill:#000000;fill-opacity:1;stroke:none;stroke-width:0.20100001;stroke-miterlimit:1.79999995;stroke-dasharray:none;stroke-dashoffset:0"
       x="93.986153"
       y="162.10428"
       id="text908"
       inkscape:export-xdpi="96"
       inkscape:export-ydpi="96"><tspan
         sodipodi:role="line"
         id="tspan906"
         x="93.986153"
         y="162.10428"
         style="font-size:5.64444447px;stroke-width:0.20100001;stroke-miterlimit:1.79999995;stroke-dasharray:none;stroke-dashoffset:0">&lt;div&gt;</tspan></text>
    <rect
       y="176.3656"
       x="47.851707"
       height="11.27184"
       width="25.946251"
       id="rect910"
       style="fill:#ffffff;fill-opacity:1;stroke:#000000;stroke-width:0.20100001;stroke-linecap:butt;stroke-miterlimit:1.79999995;stroke-dasharray:none;stroke-dashoffset:0;stroke-opacity:1"
       inkscape:export-xdpi="96"
       inkscape:export-ydpi="96" />
    <text
       id="text914"
       y="183.79982"
       x="51.652779"
       style="font-style:normal;font-weight:normal;font-size:10.58333302px;line-height:1.25;font-family:sans-serif;letter-spacing:0px;word-spacing:0px;fill:#000000;fill-opacity:1;stroke:none;stroke-width:0.20100001;stroke-miterlimit:1.79999995;stroke-dasharray:none;stroke-dashoffset:0"
       xml:space="preserve"
       inkscape:export-xdpi="96"
       inkscape:export-ydpi="96"><tspan
         style="font-size:5.64444447px;stroke-width:0.20100001;stroke-miterlimit:1.79999995;stroke-dasharray:none;stroke-dashoffset:0"
         y="183.79982"
         x="51.652779"
         id="tspan912"
         sodipodi:role="line">&lt;h1&gt;</tspan></text>
    <rect
       y="176.3656"
       x="88.068382"
       height="11.27184"
       width="25.946251"
       id="rect916"
       style="fill:#ffffff;fill-opacity:1;stroke:#000000;stroke-width:0.20100001;stroke-linecap:butt;stroke-miterlimit:1.79999995;stroke-dasharray:none;stroke-dashoffset:0;stroke-opacity:1"
       inkscape:export-xdpi="96"
       inkscape:export-ydpi="96" />
    <text
       id="text920"
       y="184.32898"
       x="92.927849"
       style="font-style:normal;font-weight:normal;font-size:10.58333302px;line-height:1.25;font-family:sans-serif;letter-spacing:0px;word-spacing:0px;fill:#000000;fill-opacity:1;stroke:none;stroke-width:0.20100001;stroke-miterlimit:1.79999995;stroke-dasharray:none;stroke-dashoffset:0"
       xml:space="preserve"
       inkscape:export-xdpi="96"
       inkscape:export-ydpi="96"><tspan
         style="font-size:5.64444447px;stroke-width:0.20100001;stroke-miterlimit:1.79999995;stroke-dasharray:none;stroke-dashoffset:0"
         y="184.32898"
         x="92.927849"
         id="tspan918"
         sodipodi:role="line">&lt;h2&gt;</tspan></text>
    <rect
       style="fill:#ffffff;fill-opacity:1;stroke:#000000;stroke-width:0.20100001;stroke-linecap:butt;stroke-miterlimit:1.79999995;stroke-dasharray:none;stroke-dashoffset:0;stroke-opacity:1"
       id="rect922"
       width="25.946251"
       height="11.27184"
       x="132.51833"
       y="176.3656"
       inkscape:export-xdpi="96"
       inkscape:export-ydpi="96" />
    <text
       xml:space="preserve"
       style="font-style:normal;font-weight:normal;font-size:10.58333302px;line-height:1.25;font-family:sans-serif;letter-spacing:0px;word-spacing:0px;fill:#000000;fill-opacity:1;stroke:none;stroke-width:0.20100001;stroke-miterlimit:1.79999995;stroke-dasharray:none;stroke-dashoffset:0"
       x="140.02351"
       y="183.79982"
       id="text926"
       inkscape:export-xdpi="96"
       inkscape:export-ydpi="96"><tspan
         sodipodi:role="line"
         id="tspan924"
         x="140.02351"
         y="183.79982"
         style="font-size:5.64444447px;stroke-width:0.20100001;stroke-miterlimit:1.79999995;stroke-dasharray:none;stroke-dashoffset:0">&lt;a&gt;</tspan></text>
    <rect
       y="198.06114"
       x="132.51833"
       height="11.27184"
       width="25.946251"
       id="rect928"
       style="fill:#ffffff;fill-opacity:1;stroke:#000000;stroke-width:0.20100001;stroke-linecap:butt;stroke-miterlimit:1.79999995;stroke-dasharray:none;stroke-dashoffset:0;stroke-opacity:1"
       inkscape:export-xdpi="96"
       inkscape:export-ydpi="96" />
    <text
       id="text932"
       y="205.49536"
       x="135.26108"
       style="font-style:normal;font-weight:normal;font-size:10.58333302px;line-height:1.25;font-family:sans-serif;letter-spacing:0px;word-spacing:0px;fill:#000000;fill-opacity:1;stroke:none;stroke-width:0.20100001;stroke-miterlimit:1.79999995;stroke-dasharray:none;stroke-dashoffset:0"
       xml:space="preserve"
       inkscape:export-xdpi="96"
       inkscape:export-ydpi="96"><tspan
         style="font-size:5.64444447px;stroke-width:0.20100001;stroke-miterlimit:1.79999995;stroke-dasharray:none;stroke-dashoffset:0"
         y="205.49536"
         x="135.26108"
         id="tspan930"
         sodipodi:role="line">&lt;img&gt;</tspan></text>
  </g>
</svg>
